Sohail Khan Mohammed
…
# view(dsPosting_2025)

# populating missing values with na 
dsPosting_2025 <- dsPosting_2025 %>% 
  replace_with_na_all(condition = ~.x== "")
dsPosting_2025

# A tibble: 944 × 13
   job_title       seniority_level status company location post_date headquarter
   <chr>           <chr>           <chr>  <chr>   <chr>    <chr>     <chr>      
 1 data scientist  senior          hybrid compan… Grapevi… 17 days … Bentonvill…
 2 data scientist  lead            hybrid compan… Fort Wo… 15 days … Detroit, M…
 3 data scientist  senior          on-si… compan… Austin,… a month … Redwood Ci…
 4 data scientist  senior          hybrid compan… Chicago… 8 days a… San Jose, …
 5 data scientist  <NA>            on-si… compan… On-site  3 days a… Stamford, …
 6 data scientist  lead            <NA>   compan… New Yor… 3 months… New York, …
 7 data scientist  junior          <NA>   compan… Berkele… 15 days … Berkeley, …
 8 machine learni… senior          on-si… compan… Menlo P… 9 days a… Menlo Park…
 9 data scientist  senior          remote compan… Fully R… 6 days a… Boston, MA…
10 data scientist  senior          on-si… compan… On-site  a day ago San Franci…
# ℹ 934 more rows
# ℹ 6 more variables: industry <chr>, ownership <chr>, company_size <chr>,
#   revenue <chr>, salary <chr>, skills <chr>

sum(is.na(dsPosting_2025)) # we have 383 na values ( Can't remove the rows as we'll lose approx 1/3rd of the data )

[1] 383

# remove company, headquarters (as Company name isn't there and headqaurters info doesnt matter ) 
dsPosting_2025 <- dsPosting_2025 %>% 
  select(job_title, seniority_level, status, location, post_date, industry, ownership, company_size, revenue, salary, skills) 

dsPosting_2025

# A tibble: 944 × 11
   job_title        seniority_level status location post_date industry ownership
   <chr>            <chr>           <chr>  <chr>    <chr>     <chr>    <chr>    
 1 data scientist   senior          hybrid Grapevi… 17 days … Retail   Public   
 2 data scientist   lead            hybrid Fort Wo… 15 days … Manufac… Public   
 3 data scientist   senior          on-si… Austin,… a month … Technol… Public   
 4 data scientist   senior          hybrid Chicago… 8 days a… Technol… Public   
 5 data scientist   <NA>            on-si… On-site  3 days a… Finance  Private  
 6 data scientist   lead            <NA>   New Yor… 3 months… Technol… Private  
 7 data scientist   junior          <NA>   Berkele… 15 days … Educati… <NA>     
 8 machine learnin… senior          on-si… Menlo P… 9 days a… Technol… Public   
 9 data scientist   senior          remote Fully R… 6 days a… Technol… Private  
10 data scientist   senior          on-si… On-site  a day ago Technol… Public   
# ℹ 934 more rows
# ℹ 4 more variables: company_size <chr>, revenue <chr>, salary <chr>,
#   skills <chr>

# removing the status (onsite, hybird, Remote, Fully remote etc from the location column )

matched_types <- c("onsite", "on-site", "remote","Remote", "fully remote","Fully Remote", "Hybrid", "hybrid")

dsPosting_2025<-dsPosting_2025 %>%
  mutate(location = ifelse(tolower(location) %in% tolower(matched_types), NA, location))

dsPosting_2025

# A tibble: 944 × 11
   job_title        seniority_level status location post_date industry ownership
   <chr>            <chr>           <chr>  <chr>    <chr>     <chr>    <chr>    
 1 data scientist   senior          hybrid Grapevi… 17 days … Retail   Public   
 2 data scientist   lead            hybrid Fort Wo… 15 days … Manufac… Public   
 3 data scientist   senior          on-si… Austin,… a month … Technol… Public   
 4 data scientist   senior          hybrid Chicago… 8 days a… Technol… Public   
 5 data scientist   <NA>            on-si… <NA>     3 days a… Finance  Private  
 6 data scientist   lead            <NA>   New Yor… 3 months… Technol… Private  
 7 data scientist   junior          <NA>   Berkele… 15 days … Educati… <NA>     
 8 machine learnin… senior          on-si… Menlo P… 9 days a… Technol… Public   
 9 data scientist   senior          remote <NA>     6 days a… Technol… Private  
10 data scientist   senior          on-si… <NA>     a day ago Technol… Public   
# ℹ 934 more rows
# ℹ 4 more variables: company_size <chr>, revenue <chr>, salary <chr>,
#   skills <chr>
…
